<?xml version="1.0" encoding="iso-8859-1"?>
<!-- Generator: Adobe Illustrator 18.1.1, SVG Export Plug-In . SVG Version: 6.00 Build 0)  -->
<svg xmlns="http://www.w3.org/2000/svg" xmlns:xlink="http://www.w3.org/1999/xlink" version="1.1" id="Capa_1" x="0px" y="0px" viewBox="0 0 26.037 26.037" style="enable-background:new 0 0 26.037 26.037;" xml:space="preserve" width="512px" height="512px">
<g>
	<path d="M0.726,1.533v22.75c0,0.845,0.527,1.529,1.182,1.529h1.458V0H1.908C1.253,0,0.726,0.685,0.726,1.533   z" fill="#009688"/>
	<rect x="22.894" y="0" width="2.418" height="6.104" fill="#009688"/>
	<rect x="22.894" y="6.77" width="2.418" height="6.099" fill="#009688"/>
	<rect x="22.894" y="13.536" width="2.418" height="6.098" fill="#009688"/>
	<polygon points="22.893,26.037 25.312,20.117 22.893,20.117  " fill="#009688"/>
	<path d="M13.016,6.644c-0.074,0.073-0.12,0.158-0.148,0.246l0.034,0.014   C12.924,6.8,12.967,6.712,13.016,6.644z" fill="#009688"/>
	<path d="M4.707,25.813h16.792V0.058H4.707V25.813z M11.09,9.892c-0.23-1.214-0.058-1.628-0.058-1.628   c0.296-0.916,1.313-1.357,1.313-1.357c0.227-0.247,0.23-0.164,0.212-0.09c0.065-0.08,0.125-0.125,0.125-0.125   c-0.06,0.063-0.104,0.127-0.136,0.189l0.111,0.057c0.066-0.108,0.14-0.175,0.14-0.175c-0.05,0.065-0.088,0.127-0.115,0.188   l0.054,0.027c0.059-0.211,0.236-0.33,0.31-0.373c0.099-0.119,0.204-0.173,0.204-0.173c-0.102,0.087-0.162,0.191-0.201,0.305   c0.096-0.137,0.258-0.213,0.258-0.213c0,0.245,0.256,0.463,0.385,0.557c-0.026-0.061-0.047-0.099-0.047-0.099   c0.049,0.051,0.087,0.099,0.119,0.148c0.02,0.003,0.037,0.009,0.056,0.012c-0.052-0.074-0.094-0.118-0.094-0.118   c0.05,0.044,0.092,0.085,0.128,0.125c0.045,0.01,0.086,0.019,0.125,0.031c-0.021-0.031-0.038-0.048-0.038-0.048   c0.026,0.02,0.052,0.04,0.077,0.061c0.698,0.207,0.985,0.599,0.985,0.599c0.614,0.69,0.297,1.8,0.2,2.085   c0.275-0.078,0.068,0.661,0.068,0.661c-0.033,0.214-0.123,0.307-0.178,0.346c-0.143,1.021-1.062,2.197-2.03,2.197   c-0.843,0-1.771-1.118-1.9-2.197c-0.054-0.039-0.144-0.131-0.178-0.346C10.984,10.538,10.762,9.739,11.09,9.892z M8.993,14.141   c0,0,0.219-0.295,0.729-0.492c0,0,1.75-0.53,1.87-0.983c0,0,1.292,3.343,2.993-0.01c0,0,0.008,0.305,0.871,0.609   c0,0,1.624,0.513,1.891,1.102c0,0,0.883,2.018,0.678,3.807c0,0-0.009,0.148-0.305,0.334c0,0-2.042,0.857-4.844,0.798   c0,0-2.731-0.137-4.471-0.915c0,0-0.247-0.06-0.257-0.629C8.149,17.761,8.238,15.262,8.993,14.141z" fill="#009688"/>
</g>
<g>
</g>
<g>
</g>
<g>
</g>
<g>
</g>
<g>
</g>
<g>
</g>
<g>
</g>
<g>
</g>
<g>
</g>
<g>
</g>
<g>
</g>
<g>
</g>
<g>
</g>
<g>
</g>
<g>
</g>
</svg>
