com/wizy/restx/mdm/MdmRestApi.class
com/wizy/restx/mdm/MdmRestApiRouter$6.class
com/wizy/restx/Utils/BigQueryUtils$1PageIterator.class
com/wizy/restx/mdm/DeviceResourcesRouter$3.class
com/wizy/restx/admin/PubSubResource$RetryHttpInitializerWrapper.class
com/wizy/restx/Utils/GAEModule$1.class
com/wizy/restx/mdm/AgencyResourcesRouter$1.class
com/wizy/restx/mdm/MdmRestApiFactoryMachine.class
com/wizy/restx/admin/CloudStorageResourceRouterFactoryMachine$1.class
com/wizy/restx/mdm/UserResourceRouterFactoryMachine.class
com/wizy/json/response/oneObject/HttpStatusResponse.class
com/wizy/restx/Utils/BigQueryUtils.class
com/wizy/restx/admin/BigqueryResourceRouterFactoryMachine$1.class
com/wizy/restx/admin/CloudStorageResourceRouter$2.class
com/wizy/restx/mdm/DeviceResourcesRouter$10.class
com/wizy/restx/admin/FileResourceRouter.class
com/wizy/restx/admin/FileResourceRouter$3.class
com/wizy/restx/mdm/DeviceResourcesRouter$9.class
com/wizy/restx/mdm/TaskResourcesRouter$7.class
com/wizy/restx/Utils/GAEModuleFactoryMachine$3.class
com/wizy/model/gcs/GcsCallFile.class
com/wizy/restx/admin/PubSubResource.class
com/wizy/model/admin/Notify.class
com/wizy/restx/mdm/UserResourceRouter$3.class
com/wizy/restx/mdm/NetworkResourcesRouter$1.class
com/wizy/restx/mdm/TaskResources.class
com/wizy/restx/files/ConfFileUploadRoute.class
com/wizy/restx/admin/FileResourceRouter$4.class
com/wizy/model/mdm/agency/Agency.class
com/wizy/restx/fcm/FirebaseResourceRouter$1.class
com/wizy/restx/mdm/UserResourceFactoryMachine$1.class
com/wizy/restx/Utils/StorageFactory.class
com/wizy/restx/mdm/MdmRestApiRouter$13.class
com/wizy/restx/mdm/MdmRestApiRouter$1.class
com/wizy/restx/mdm/AgencyResourcesRouter$6.class
com/wizy/restx/admin/BigqueryResourceRouter$2.class
com/wizy/restx/admin/FileResource.class
com/wizy/security/MarketplaceUserService.class
com/wizy/restx/Utils/PartsReader$PartListener.class
com/wizy/restx/mdm/DeviceResourcesRouter$11.class
com/wizy/restx/mdm/AgencyResourcesFactoryMachine.class
com/wizy/restx/mdm/DeviceResourcesRouter.class
com/wizy/restx/mdm/MdmRestApiRouter.class
com/wizy/json/response/gcs/ConfFileResponse.class
com/wizy/restx/mdm/MdmRestApiRouter$12.class
com/wizy/model/mdm/Task.class
META-INF/services/restx.factory.FactoryMachine
com/wizy/restx/mdm/MdmRestApiRouter$7.class
com/wizy/restx/mdm/DeviceResourcesRouter$2.class
com/wizy/restx/mdm/UserResource$Invitation.class
com/wizy/model/admin/User$1.class
com/wizy/restx/mdm/DeviceResourcesRouterFactoryMachine$1.class
com/wizy/restx/admin/PubSubResourceFactoryMachine.class
com/wizy/restx/admin/CloudStorageResourceRouterFactoryMachine.class
com/wizy/restx/mdm/NetworkResourcesRouter$2.class
com/wizy/restx/mdm/UserResourceRouter$4.class
com/wizy/restx/admin/BigqueryResourceRouterFactoryMachine.class
com/wizy/restx/fcm/FirebaseResourceRouter.class
com/wizy/restx/files/ConfigFileManagerResourcesRouter$4.class
com/wizy/json/response/gcs/CallFileResponse.class
com/wizy/restx/mdm/DeviceResourcesRouter$8.class
com/wizy/restx/Utils/GAEModule.class
com/wizy/restx/Utils/StorageResource.class
com/wizy/restx/admin/PubSubResourceRouter$4.class
com/wizy/model/admin/User$Builder.class
com/wizy/restx/files/ConfigFileManagerResourcesRouterFactoryMachine$1.class
com/wizy/restx/admin/CloudStorageResourceRouter$1.class
com/wizy/restx/mdm/TaskResourcesRouter$6.class
com/wizy/restx/mdm/AgencyResourcesRouter$5.class
com/wizy/restx/admin/BigqueryResourceRouter$1.class
com/wizy/restx/mdm/NetworkResourcesFactoryMachine$1.class
com/wizy/restx/admin/PubSubResourceRouter$1.class
com/wizy/restx/mdm/TaskResourcesRouter$9.class
com/wizy/restx/admin/BigqueryResource.class
com/wizy/restx/mdm/UserResourceRouter$5.class
com/wizy/restx/fcm/FirebaseResourceRouterFactoryMachine$1.class
com/wizy/restx/mdm/UserResource.class
com/wizy/restx/mdm/DeviceResourcesRouter$7.class
com/wizy/restx/mdm/DeviceResourcesFactoryMachine.class
com/wizy/restx/mdm/UserResourceRouter.class
com/wizy/restx/mdm/DeviceResources.class
com/wizy/restx/files/ConfigFileManagerResources.class
com/wizy/restx/files/CallFileManagerResourcesRouterFactoryMachine$1.class
com/wizy/restx/files/CallFileManagerResourcesRouter$3.class
com/wizy/restx/mdm/AgencyResourcesRouter$2.class
com/wizy/restx/mdm/MdmRestApiRouter$5.class
com/wizy/json/response/oneObject/WifiListWithStatus.class
com/wizy/restx/mdm/MdmRestApiRouter$2.class
com/wizy/restx/mdm/AgencyResources.class
com/wizy/restx/mdm/MdmRestApiRouter$11.class
com/wizy/restx/mdm/NetworkResourcesRouterFactoryMachine$1.class
com/wizy/restx/mdm/AgencyResourcesRouter$3.class
com/wizy/restx/mdm/UserResourceRouter$7.class
com/wizy/restx/mdm/NetworkResources.class
com/wizy/restx/mdm/MdmRestApiFactoryMachine$1.class
com/wizy/model/mdm/device/NetworkInfo.class
com/wizy/restx/admin/PubSubResourceRouter$2.class
com/wizy/restx/files/CallFileManagerResourcesRouter$1.class
com/wizy/json/response/twoObjects/MultipleTaskListResp.class
com/wizy/restx/mdm/MdmRestApiRouter$10.class
com/wizy/restx/mdm/DeviceResourcesRouterFactoryMachine.class
com/wizy/restx/files/CallFileManagerResourcesRouterFactoryMachine.class
com/wizy/restx/mdm/DeviceResourcesRouter$4.class
com/wizy/security/OAuthCallbackServlet.class
com/wizy/restx/fcm/FirebaseResourceFactoryMachine.class
com/wizy/restx/files/CallFileManagerResourcesRouter.class
com/wizy/restx/admin/PubSubResourceRouter$3.class
com/wizy/restx/mdm/TaskResourcesRouterFactoryMachine$1.class
com/wizy/restx/mdm/AgencyResourcesRouter.class
com/wizy/restx/mdm/TaskResourcesRouter.class
com/wizy/security/MarketplaceSecurityFilter.class
com/wizy/restx/files/CallFileUploadRoute.class
com/wizy/restx/files/CallFileManagerResourcesFactoryMachine.class
com/wizy/restx/mdm/UserResourceRouter$8.class
com/wizy/model/mdm/device/Device.class
com/wizy/model/gcs/GcsConfigFile.class
com/wizy/restx/admin/PubSubResourceRouterFactoryMachine$1.class
com/wizy/restx/mdm/TaskResourcesRouter$8.class
com/wizy/restx/mdm/DeviceResourcesRouter$5.class
com/wizy/restx/mdm/UserResourceFactoryMachine.class
com/wizy/restx/admin/FileResourceFactoryMachine$1.class
com/wizy/restx/mdm/MdmRestApiRouter$4.class
com/wizy/security/AuthenticationRequiredFilter.class
com/wizy/restx/mdm/AgencyResourcesRouter$4.class
com/wizy/restx/files/CallFileManagerResourcesRouter$2.class
com/wizy/restx/mdm/MdmRestApiRouterFactoryMachine.class
com/wizy/json/response/oneObject/AgencyWithStatus.class
com/wizy/restx/files/CallFileManagerResources.class
com/wizy/restx/files/ConfigFileManagerResourcesRouterFactoryMachine.class
com/wizy/restx/admin/FileResourceFactoryMachine.class
com/wizy/restx/fcm/FirebaseResourceRouter$3.class
com/wizy/restx/admin/CloudStorageResource.class
com/wizy/restx/mdm/NetworkResourcesRouterFactoryMachine.class
com/wizy/restx/mdm/MdmRestApiRouter$3.class
com/wizy/restx/mdm/DeviceResourcesRouter$13.class
com/wizy/json/response/oneObject/LoginResponse.class
com/wizy/restx/admin/PubSubResourceRouter.class
com/wizy/restx/mdm/DeviceResourcesFactoryMachine$1.class
com/wizy/restx/mdm/UserResource$1.class
com/wizy/json/response/oneObject/UserResponse.class
com/wizy/restx/admin/PubSubResourceRouter$5.class
com/wizy/restx/files/ConfigFileManagerResourcesRouter$2.class
com/wizy/restx/admin/BigqueryResourceFactoryMachine.class
com/wizy/restx/files/ConfigFileManagerResourcesRouter.class
com/wizy/restx/mdm/DeviceResourcesRouter$6.class
com/wizy/restx/mdm/AgencyResourcesFactoryMachine$1.class
com/wizy/restx/mdm/MdmRestApiRouter$9.class
com/wizy/restx/files/ConfFileUploadRoute$1.class
com/wizy/restx/Utils/GAEModuleFactoryMachine.class
com/wizy/restx/mdm/UserResourceRouter$6.class
com/wizy/json/mdm/TaskJson.class
com/wizy/restx/mdm/NetworkResourcesRouter$4.class
com/wizy/restx/Utils/PartsReader$Part.class
com/wizy/restx/mdm/NetworkResourcesRouter$3.class
com/wizy/json/response/oneObject/DeviceListWithStatus.class
com/wizy/restx/admin/CloudStorageResourceRouter.class
com/wizy/restx/files/CallFileUploadRouteFactoryMachine$1.class
com/wizy/json/response/twoObjects/MessageMultipleDevice.class
com/wizy/restx/mdm/TaskResourcesRouter$4.class
com/wizy/restx/mdm/AgencyResourcesRouterFactoryMachine.class
com/wizy/restx/mdm/DeviceResourcesRouter$1.class
com/wizy/restx/files/CallFileManagerResourcesRouter$4.class
com/wizy/security/OAuthLoginServlet.class
com/wizy/restx/admin/PubSubResource$RetryHttpInitializerWrapper$1.class
com/wizy/restx/files/CallFileUploadRoute$1.class
com/wizy/restx/Utils/PartsReader$FilePart.class
com/wizy/restx/admin/BigqueryResourceFactoryMachine$1.class
com/wizy/restx/mdm/MdmRestApiRouter$8.class
com/wizy/json/JsonCollection.class
com/wizy/restx/mdm/MdmRestApiRouterFactoryMachine$1.class
com/wizy/json/admin/UserJson.class
com/wizy/model/mdm/Message.class
com/wizy/restx/admin/FileResourceRouterFactoryMachine$1.class
com/wizy/model/admin/BqUser.class
com/wizy/restx/mdm/DeviceResourcesRouter$12.class
com/wizy/restx/mdm/TaskResourcesRouter$5.class
com/wizy/restx/mdm/TaskResources$1.class
com/wizy/json/response/twoObjects/MultipleDeviceListResp.class
com/wizy/json/response/twoObjects/TaskDeviceHttpstatusResp.class
com/wizy/ofy/OfyService.class
com/wizy/restx/Utils/GAEModuleFactoryMachine$4.class
com/wizy/json/response/oneObject/StringToJsonResp.class
com/wizy/security/SecurityAccess.class
com/wizy/restx/mdm/UserResourceRouterFactoryMachine$1.class
com/wizy/restx/mdm/TaskResourcesFactoryMachine$1.class
com/wizy/restx/files/ConfigFileManagerResourcesFactoryMachine$1.class
com/wizy/restx/Utils/PartsReader.class
com/wizy/restx/mdm/NetworkResourcesFactoryMachine.class
com/wizy/restx/admin/FileResourceRouterFactoryMachine.class
com/wizy/restx/mdm/NetworkResourcesRouter$5.class
com/wizy/restx/files/ConfigFileManagerResourcesRouter$3.class
com/wizy/restx/mdm/UserResourceRouter$2.class
com/wizy/restx/Utils/PartsReader$TextPart.class
com/wizy/restx/fcm/FirebaseResourceRouter$2.class
com/wizy/restx/mdm/TaskResources$2.class
com/wizy/restx/files/ConfigFileManagerResourcesFactoryMachine.class
com/wizy/json/response/multiObjects/DeviceAgencyWifiResp.class
com/wizy/restx/admin/PubSubResourceFactoryMachine$1.class
com/wizy/json/response/oneObject/TaskListWithHttpStatus.class
com/wizy/restx/mdm/AgencyResourcesRouterFactoryMachine$1.class
com/wizy/restx/mdm/TaskResourcesRouter$3.class
com/wizy/restx/fcm/FirebaseResource.class
com/wizy/restx/files/ConfFileUploadRouteFactoryMachine$1.class
com/wizy/model/mdm/agency/Wifi.class
com/wizy/restx/admin/CloudStorageResourceFactoryMachine.class
com/wizy/restx/mdm/TaskResourcesFactoryMachine.class
com/wizy/restx/files/ConfFileUploadRouteFactoryMachine.class
com/wizy/restx/Utils/GAEModuleFactoryMachine$2.class
com/wizy/restx/fcm/FirebaseResourceFactoryMachine$1.class
com/wizy/restx/admin/PubSubResourceRouterFactoryMachine.class
com/wizy/model/admin/User.class
com/wizy/restx/Utils/GAEModule$1$1.class
com/wizy/restx/mdm/DeviceResourcesRouter$14.class
com/wizy/restx/files/ConfigFileManagerResourcesRouter$1.class
com/wizy/restx/fcm/FirebaseResourceRouter$4.class
com/wizy/restx/admin/FileResourceRouter$1.class
com/wizy/json/response/oneObject/DeviceWithStatus.class
com/wizy/restx/mdm/TaskResourcesRouter$1.class
com/wizy/json/response/oneObject/TaskWithHttpStatus.class
com/wizy/restx/admin/BigqueryResourceRouter.class
com/wizy/restx/mdm/UserResourceRouter$1.class
com/wizy/restx/fcm/FirebaseResourceRouterFactoryMachine.class
com/wizy/restx/mdm/DeviceResourcesRouter$15.class
com/wizy/restx/files/CallFileUploadRouteFactoryMachine.class
com/wizy/restx/mdm/NetworkResourcesRouter$6.class
com/wizy/security/AccessControlFilter.class
com/wizy/restx/files/CallFileManagerResourcesFactoryMachine$1.class
com/wizy/restx/mdm/TaskResourcesRouter$2.class
com/wizy/restx/Utils/GAEModuleFactoryMachine$1.class
com/wizy/restx/admin/FileResourceRouter$2.class
com/wizy/restx/admin/CloudStorageResourceFactoryMachine$1.class
com/wizy/restx/mdm/TaskResourcesRouterFactoryMachine.class
com/wizy/restx/mdm/NetworkResourcesRouter.class
